…
group data
===

`group_by` implies `tbl_df`
`tbl_df` wraps a `data.frame`

```r
print(CO2_grouped)
```

```
Source: local data frame [84 x 5]
Groups: Plant, Type, Treatment [12]

   Plant   Type  Treatment  conc uptake
*  <ord> <fctr>     <fctr> <dbl>  <dbl>
1    Qn1 Quebec nonchilled    95   16.0
2    Qn1 Quebec nonchilled   175   30.4
3    Qn1 Quebec nonchilled   250   34.8
4    Qn1 Quebec nonchilled   350   37.2
5    Qn1 Quebec nonchilled   500   35.3
6    Qn1 Quebec nonchilled   675   39.2
7    Qn1 Quebec nonchilled  1000   39.7
8    Qn2 Quebec nonchilled    95   13.6
9    Qn2 Quebec nonchilled   175   27.3
10   Qn2 Quebec nonchilled   250   37.1
# ... with 74 more rows
```
…
